%YAML 1.1
%TAG !u! tag:unity3d.com,2011:
--- !u!1 &100004
GameObject:
  m_ObjectHideFlags: 0
  m_CorrespondingSourceObject: {fileID: 0}
  m_PrefabInstance: {fileID: 0}
  m_PrefabAsset: {fileID: 0}
  serializedVersion: 6
  m_Component:
  - component: {fileID: 400000}
  - component: {fileID: 2000000}
  - component: {fileID: 8100000}
  - component: {fileID: 11400006}
  - component: {fileID: 12410568}
  m_Layer: 0
  m_Name: MainCamera
  m_TagString: MainCamera
  m_Icon: {fileID: 0}
  m_NavMeshLayer: 0
  m_StaticEditorFlags: 0
  m_IsActive: 1
--- !u!4 &400000
Transform:
  m_ObjectHideFlags: 0
  m_CorrespondingSourceObject: {fileID: 0}
  m_PrefabInstance: {fileID: 0}
  m_PrefabAsset: {fileID: 0}
  m_GameObject: {fileID: 100004}
  m_LocalRotation: {x: 0, y: 0, z: 0, w: 1}
  m_LocalPosition: {x: 0, y: 0.6, z: 0}
  m_LocalScale: {x: 1, y: 1, z: 1}
  m_Children:
  - {fileID: 7899239750234729027}
  - {fileID: 8928529712137148515}
  m_Father: {fileID: 400002}
  m_RootOrder: 0
  m_LocalEulerAnglesHint: {x: 0, y: 0, z: 0}
--- !u!20 &2000000
Camera:
  m_ObjectHideFlags: 0
  m_CorrespondingSourceObject: {fileID: 0}
  m_PrefabInstance: {fileID: 0}
  m_PrefabAsset: {fileID: 0}
  m_GameObject: {fileID: 100004}
  m_Enabled: 1
  serializedVersion: 2
  m_ClearFlags: 1
  m_BackGroundColor: {r: 0.19215687, g: 0.3019608, b: 0.4745098, a: 0.019607844}
  m_projectionMatrixMode: 1
  m_GateFitMode: 2
  m_FOVAxisMode: 0
  m_SensorSize: {x: 36, y: 24}
  m_LensShift: {x: 0, y: 0}
  m_FocalLength: 50
  m_NormalizedViewPortRect:
    serializedVersion: 2
    x: 0
    y: 0
    width: 1
    height: 1
  near clip plane: 0.1
  far clip plane: 1000
  field of view: 60
  orthographic: 0
  orthographic size: 5
  m_Depth: 0
  m_CullingMask:
    serializedVersion: 2
    m_Bits: 4294967295
  m_RenderingPath: -1
  m_TargetTexture: {fileID: 0}
  m_TargetDisplay: 0
  m_TargetEye: 3
  m_HDR: 0
  m_AllowMSAA: 1
  m_AllowDynamicResolution: 0
  m_ForceIntoRT: 0
  m_OcclusionCulling: 1
  m_StereoConvergence: 10
  m_StereoSeparation: 0.022
--- !u!81 &8100000
AudioListener:
  m_ObjectHideFlags: 0
  m_CorrespondingSourceObject: {fileID: 0}
  m_PrefabInstance: {fileID: 0}
  m_PrefabAsset: {fileID: 0}
  m_GameObject: {fileID: 100004}
  m_Enabled: 1
--- !u!114 &11400006
MonoBehaviour:
  m_ObjectHideFlags: 0
  m_CorrespondingSourceObject: {fileID: 0}
  m_PrefabInstance: {fileID: 0}
  m_PrefabAsset: {fileID: 0}
  m_GameObject: {fileID: 100004}
  m_Enabled: 0
  m_EditorHideFlags: 0
  m_Script: {fileID: 11500000, guid: 83c81407209f85e4c87c0cda8b32868e, type: 3}
  m_Name: 
  m_EditorClassIdentifier: 
  Camera: {fileID: 2000000}
  motionBob:
    HorizontalBobRange: 0.1
    VerticalBobRange: 0.05
    Bobcurve:
      serializedVersion: 2
      m_Curve:
      - serializedVersion: 3
        time: 0
        value: 0
        inSlope: 0
        outSlope: 0
        tangentMode: 0
        weightedMode: 0
        inWeight: 0.33333334
        outWeight: 0.33333334
      - serializedVersion: 3
        time: 0.5
        value: 1
        inSlope: 0
        outSlope: 0
        tangentMode: 0
        weightedMode: 0
        inWeight: 0.33333334
        outWeight: 0.33333334
      - serializedVersion: 3
        time: 1
        value: 0
        inSlope: 0
        outSlope: 0
        tangentMode: 0
        weightedMode: 0
        inWeight: 0.33333334
        outWeight: 0.33333334
      - serializedVersion: 3
        time: 1.5
        value: -1
        inSlope: 0
        outSlope: 0
        tangentMode: 0
        weightedMode: 0
        inWeight: 0.33333334
        outWeight: 0.33333334
      - serializedVersion: 3
        time: 2
        value: 0
        inSlope: 0
        outSlope: 0
        tangentMode: 0
        weightedMode: 0
        inWeight: 0.33333334
        outWeight: 0.33333334
      m_PreInfinity: 2
      m_PostInfinity: 2
      m_RotationOrder: 4
    VerticaltoHorizontalRatio: 2
  jumpAndLandingBob:
    BobDuration: 0.15
    BobAmount: 0.2
  rigidbodyFirstPersonController: {fileID: 11400004}
  StrideInterval: 4
  RunningStrideLengthen: 0.722
--- !u!124 &12410568
Behaviour:
  m_ObjectHideFlags: 0
  m_CorrespondingSourceObject: {fileID: 0}
  m_PrefabInstance: {fileID: 0}
  m_PrefabAsset: {fileID: 0}
  m_GameObject: {fileID: 100004}
  m_Enabled: 1
--- !u!1 &100006
GameObject:
  m_ObjectHideFlags: 0
  m_CorrespondingSourceObject: {fileID: 0}
  m_PrefabInstance: {fileID: 0}
  m_PrefabAsset: {fileID: 0}
  serializedVersion: 6
  m_Component:
  - component: {fileID: 400002}
  - component: {fileID: 5400000}
  - component: {fileID: 13600000}
  - component: {fileID: 11400004}
  - component: {fileID: 1839223800143227833}
  - component: {fileID: 7065375863881366000}
  - component: {fileID: 5557797725371813686}
  - component: {fileID: 2367898739781932605}
  m_Layer: 0
  m_Name: Player
  m_TagString: Untagged
  m_Icon: {fileID: 3936346786652291628, guid: 0000000000000000d000000000000000, type: 0}
  m_NavMeshLayer: 0
  m_StaticEditorFlags: 0
  m_IsActive: 1
--- !u!4 &400002
Transform:
  m_ObjectHideFlags: 0
  m_CorrespondingSourceObject: {fileID: 0}
  m_PrefabInstance: {fileID: 0}
  m_PrefabAsset: {fileID: 0}
  m_GameObject: {fileID: 100006}
  m_LocalRotation: {x: 0, y: 1, z: 0, w: 0.00000028088027}
  m_LocalPosition: {x: 0, y: 0, z: 0}
  m_LocalScale: {x: 1, y: 1, z: 1}
  m_Children:
  - {fileID: 400000}
  m_Father: {fileID: 0}
  m_RootOrder: 0
  m_LocalEulerAnglesHint: {x: 0, y: 179.99998, z: 0}
--- !u!54 &5400000
Rigidbody:
  m_ObjectHideFlags: 0
  m_CorrespondingSourceObject: {fileID: 0}
  m_PrefabInstance: {fileID: 0}
  m_PrefabAsset: {fileID: 0}
  m_GameObject: {fileID: 100006}
  serializedVersion: 2
  m_Mass: 10
  m_Drag: 0
  m_AngularDrag: 0.05
  m_UseGravity: 1
  m_IsKinematic: 0
  m_Interpolate: 0
  m_Constraints: 112
  m_CollisionDetection: 0
--- !u!136 &13600000
CapsuleCollider:
  m_ObjectHideFlags: 0
  m_CorrespondingSourceObject: {fileID: 0}
  m_PrefabInstance: {fileID: 0}
  m_PrefabAsset: {fileID: 0}
  m_GameObject: {fileID: 100006}
  m_Material: {fileID: 13400000, guid: 468d28b7bd47c084aa6a1a9551fece60, type: 2}
  m_IsTrigger: 0
  m_Enabled: 1
  m_Radius: 0.5
  m_Height: 1.6
  m_Direction: 1
  m_Center: {x: 0, y: 0, z: 0}
--- !u!114 &11400004
MonoBehaviour:
  m_ObjectHideFlags: 0
  m_CorrespondingSourceObject: {fileID: 0}
  m_PrefabInstance: {fileID: 0}
  m_PrefabAsset: {fileID: 0}
  m_GameObject: {fileID: 100006}
  m_Enabled: 1
  m_EditorHideFlags: 0
  m_Script: {fileID: 11500000, guid: 81c9795a96c094f4cbde4d65546aa9b2, type: 3}
  m_Name: 
  m_EditorClassIdentifier: 
  cam: {fileID: 2000000}
  movementSettings:
    ForwardSpeed: 8
    BackwardSpeed: 4
    StrafeSpeed: 4
    RunMultiplier: 2
    RunKey: 304
    JumpForce: 50
    SlopeCurveModifier:
      serializedVersion: 2
      m_Curve:
      - serializedVersion: 3
        time: -90
        value: 1
        inSlope: 0
        outSlope: 0
        tangentMode: 0
        weightedMode: 0
        inWeight: 0.33333334
        outWeight: 0.33333334
      - serializedVersion: 3
        time: 0
        value: 1
        inSlope: 0
        outSlope: 0
        tangentMode: 0
        weightedMode: 0
        inWeight: 0.33333334
        outWeight: 0.33333334
      - serializedVersion: 3
        time: 90
        value: 0
        inSlope: 0
        outSlope: 0
        tangentMode: 0
        weightedMode: 0
        inWeight: 0.33333334
        outWeight: 0.33333334
      m_PreInfinity: 2
      m_PostInfinity: 2
      m_RotationOrder: 4
    CurrentTargetSpeed: 8
  mouseLook:
    XSensitivity: 2
    YSensitivity: 2
    clampVerticalRotation: 1
    MinimumX: -45
    MaximumX: 90
    smooth: 1
    smoothTime: 18
    lockCursor: 1
  advancedSettings:
    groundCheckDistance: 0.1
    stickToGroundHelperDistance: 0.6
    slowDownRate: 20
    airControl: 0
    shellOffset: 0
--- !u!114 &1839223800143227833
MonoBehaviour:
  m_ObjectHideFlags: 0
  m_CorrespondingSourceObject: {fileID: 0}
  m_PrefabInstance: {fileID: 0}
  m_PrefabAsset: {fileID: 0}
  m_GameObject: {fileID: 100006}
  m_Enabled: 1
  m_EditorHideFlags: 0
  m_Script: {fileID: 11500000, guid: 467f20baf936de84aa30f127b023cac7, type: 3}
  m_Name: 
  m_EditorClassIdentifier: 
  hitPoints: 100
--- !u!114 &7065375863881366000
MonoBehaviour:
  m_ObjectHideFlags: 0
  m_CorrespondingSourceObject: {fileID: 0}
  m_PrefabInstance: {fileID: 0}
  m_PrefabAsset: {fileID: 0}
  m_GameObject: {fileID: 100006}
  m_Enabled: 1
  m_EditorHideFlags: 0
  m_Script: {fileID: 11500000, guid: 2a4e6805e7fb025489dbdd4f7552b9e9, type: 3}
  m_Name: 
  m_EditorClassIdentifier: 
  gameOverCanvas: {fileID: 0}
--- !u!114 &5557797725371813686
MonoBehaviour:
  m_ObjectHideFlags: 0
  m_CorrespondingSourceObject: {fileID: 0}
  m_PrefabInstance: {fileID: 0}
  m_PrefabAsset: {fileID: 0}
  m_GameObject: {fileID: 100006}
  m_Enabled: 1
  m_EditorHideFlags: 0
  m_Script: {fileID: 11500000, guid: b59f958bc1e0a594ab8436e36d2e2e76, type: 3}
  m_Name: 
  m_EditorClassIdentifier: 
  ammoSlots:
  - ammoType: 0
    ammoAmount: 10
  - ammoType: 1
    ammoAmount: 20
  - ammoType: 2
    ammoAmount: 8
--- !u!114 &2367898739781932605
MonoBehaviour:
  m_ObjectHideFlags: 0
  m_CorrespondingSourceObject: {fileID: 0}
  m_PrefabInstance: {fileID: 0}
  m_PrefabAsset: {fileID: 0}
  m_GameObject: {fileID: 100006}
  m_Enabled: 1
  m_EditorHideFlags: 0
  m_Script: {fileID: 11500000, guid: 2317f1eb6780a0d43985cde50160da11, type: 3}
  m_Name: 
  m_EditorClassIdentifier: 
  impactCanvas: {fileID: 0}
  impactTime: 0.3
--- !u!1 &2355839317691478446
GameObject:
  m_ObjectHideFlags: 0
  m_CorrespondingSourceObject: {fileID: 0}
  m_PrefabInstance: {fileID: 0}
  m_PrefabAsset: {fileID: 0}
  serializedVersion: 6
  m_Component:
  - component: {fileID: 8928529712137148515}
  m_Layer: 0
  m_Name: Weapons
  m_TagString: Untagged
  m_Icon: {fileID: 0}
  m_NavMeshLayer: 0
  m_StaticEditorFlags: 0
  m_IsActive: 1
--- !u!4 &8928529712137148515
Transform:
  m_ObjectHideFlags: 0
  m_CorrespondingSourceObject: {fileID: 0}
  m_PrefabInstance: {fileID: 0}
  m_PrefabAsset: {fileID: 0}
  m_GameObject: {fileID: 2355839317691478446}
  m_LocalRotation: {x: 0, y: 0, z: 0, w: 1}
  m_LocalPosition: {x: 0, y: 0, z: 0}
  m_LocalScale: {x: 1, y: 1, z: 1}
  m_Children:
  - {fileID: 5922108650654226637}
  - {fileID: 468884140859800991}
  - {fileID: 8389406227759258528}
  m_Father: {fileID: 400000}
  m_RootOrder: 1
  m_LocalEulerAnglesHint: {x: 0, y: 0, z: 0}
--- !u!1001 &2805526191224748601
PrefabInstance:
  m_ObjectHideFlags: 0
  serializedVersion: 2
  m_Modification:
    m_TransformParent: {fileID: 8928529712137148515}
    m_Modifications:
    - target: {fileID: 2337074158996965286, guid: a5dd918ead0279341986d88788dfc451,
        type: 3}
      propertyPath: m_LocalPosition.x
      value: 0.137
      objectReference: {fileID: 0}
    - target: {fileID: 2337074158996965286, guid: a5dd918ead0279341986d88788dfc451,
        type: 3}
      propertyPath: m_LocalPosition.y
      value: -0.11078483
      objectReference: {fileID: 0}
    - target: {fileID: 2337074158996965286, guid: a5dd918ead0279341986d88788dfc451,
        type: 3}
      propertyPath: m_LocalPosition.z
      value: 0.487
      objectReference: {fileID: 0}
    - target: {fileID: 2337074158996965286, guid: a5dd918ead0279341986d88788dfc451,
        type: 3}
      propertyPath: m_LocalRotation.x
      value: -0.018488158
      objectReference: {fileID: 0}
    - target: {fileID: 2337074158996965286, guid: a5dd918ead0279341986d88788dfc451,
        type: 3}
      propertyPath: m_LocalRotation.y
      value: -0.7370018
      objectReference: {fileID: 0}
    - target: {fileID: 2337074158996965286, guid: a5dd918ead0279341986d88788dfc451,
        type: 3}
      propertyPath: m_LocalRotation.z
      value: 0.02017627
      objectReference: {fileID: 0}
    - target: {fileID: 2337074158996965286, guid: a5dd918ead0279341986d88788dfc451,
        type: 3}
      propertyPath: m_LocalRotation.w
      value: 0.6753366
      objectReference: {fileID: 0}
    - target: {fileID: 2337074158996965286, guid: a5dd918ead0279341986d88788dfc451,
        type: 3}
      propertyPath: m_RootOrder
      value: 1
      objectReference: {fileID: 0}
    - target: {fileID: 2337074158996965286, guid: a5dd918ead0279341986d88788dfc451,
        type: 3}
      propertyPath: m_LocalEulerAnglesHint.x
      value: 0.273
      objectReference: {fileID: 0}
    - target: {fileID: 2337074158996965286, guid: a5dd918ead0279341986d88788dfc451,
        type: 3}
      propertyPath: m_LocalEulerAnglesHint.y
      value: -94.993004
      objectReference: {fileID: 0}
    - target: {fileID: 2337074158996965286, guid: a5dd918ead0279341986d88788dfc451,
        type: 3}
      propertyPath: m_LocalEulerAnglesHint.z
      value: 3.124
      objectReference: {fileID: 0}
    - target: {fileID: 2337074158997199750, guid: a5dd918ead0279341986d88788dfc451,
        type: 3}
      propertyPath: m_Name
      value: Shotgun
      objectReference: {fileID: 0}
    - target: {fileID: 2337074158997199750, guid: a5dd918ead0279341986d88788dfc451,
        type: 3}
      propertyPath: m_IsActive
      value: 1
      objectReference: {fileID: 0}
    - target: {fileID: 4170932719225652617, guid: a5dd918ead0279341986d88788dfc451,
        type: 3}
      propertyPath: FPCamera
      value: 
      objectReference: {fileID: 2000000}
    - target: {fileID: 4170932719225652617, guid: a5dd918ead0279341986d88788dfc451,
        type: 3}
      propertyPath: ammoSlot
      value: 
      objectReference: {fileID: 5557797725371813686}
    m_RemovedComponents: []
  m_SourcePrefab: {fileID: 100100000, guid: a5dd918ead0279341986d88788dfc451, type: 3}
--- !u!4 &468884140859800991 stripped
Transform:
  m_CorrespondingSourceObject: {fileID: 2337074158996965286, guid: a5dd918ead0279341986d88788dfc451,
    type: 3}
  m_PrefabInstance: {fileID: 2805526191224748601}
  m_PrefabAsset: {fileID: 0}
--- !u!1001 &4470815651746055202
PrefabInstance:
  m_ObjectHideFlags: 0
  serializedVersion: 2
  m_Modification:
    m_TransformParent: {fileID: 400000}
    m_Modifications:
    - target: {fileID: 3722243044128553705, guid: 76dbca574cc90c14ea4aae5bc358b1d5,
        type: 3}
      propertyPath: m_Name
      value: Flash Light
      objectReference: {fileID: 0}
    - target: {fileID: 6022504120201932385, guid: 76dbca574cc90c14ea4aae5bc358b1d5,
        type: 3}
      propertyPath: m_LocalPosition.x
      value: 0
      objectReference: {fileID: 0}
    - target: {fileID: 6022504120201932385, guid: 76dbca574cc90c14ea4aae5bc358b1d5,
        type: 3}
      propertyPath: m_LocalPosition.y
      value: 0.16
      objectReference: {fileID: 0}
    - target: {fileID: 6022504120201932385, guid: 76dbca574cc90c14ea4aae5bc358b1d5,
        type: 3}
      propertyPath: m_LocalPosition.z
      value: 0.72
      objectReference: {fileID: 0}
    - target: {fileID: 6022504120201932385, guid: 76dbca574cc90c14ea4aae5bc358b1d5,
        type: 3}
      propertyPath: m_LocalRotation.x
      value: 0
      objectReference: {fileID: 0}
    - target: {fileID: 6022504120201932385, guid: 76dbca574cc90c14ea4aae5bc358b1d5,
        type: 3}
      propertyPath: m_LocalRotation.y
      value: 0
      objectReference: {fileID: 0}
    - target: {fileID: 6022504120201932385, guid: 76dbca574cc90c14ea4aae5bc358b1d5,
        type: 3}
      propertyPath: m_LocalRotation.z
      value: 0
      objectReference: {fileID: 0}
    - target: {fileID: 6022504120201932385, guid: 76dbca574cc90c14ea4aae5bc358b1d5,
        type: 3}
      propertyPath: m_LocalRotation.w
      value: 1
      objectReference: {fileID: 0}
    - target: {fileID: 6022504120201932385, guid: 76dbca574cc90c14ea4aae5bc358b1d5,
        type: 3}
      propertyPath: m_RootOrder
      value: 0
      objectReference: {fileID: 0}
    - target: {fileID: 6022504120201932385, guid: 76dbca574cc90c14ea4aae5bc358b1d5,
        type: 3}
      propertyPath: m_LocalEulerAnglesHint.x
      value: 90
      objectReference: {fileID: 0}
    - target: {fileID: 6022504120201932385, guid: 76dbca574cc90c14ea4aae5bc358b1d5,
        type: 3}
      propertyPath: m_LocalEulerAnglesHint.y
      value: 0
      objectReference: {fileID: 0}
    - target: {fileID: 6022504120201932385, guid: 76dbca574cc90c14ea4aae5bc358b1d5,
        type: 3}
      propertyPath: m_LocalEulerAnglesHint.z
      value: 0
      objectReference: {fileID: 0}
    m_RemovedComponents: []
  m_SourcePrefab: {fileID: 100100000, guid: 76dbca574cc90c14ea4aae5bc358b1d5, type: 3}
--- !u!4 &7899239750234729027 stripped
Transform:
  m_CorrespondingSourceObject: {fileID: 6022504120201932385, guid: 76dbca574cc90c14ea4aae5bc358b1d5,
    type: 3}
  m_PrefabInstance: {fileID: 4470815651746055202}
  m_PrefabAsset: {fileID: 0}
--- !u!1001 &6053924299734522886
PrefabInstance:
  m_ObjectHideFlags: 0
  serializedVersion: 2
  m_Modification:
    m_TransformParent: {fileID: 8928529712137148515}
    m_Modifications:
    - target: {fileID: 2337074158996965286, guid: ada2587319194f542957a8c2ae277cb9,
        type: 3}
      propertyPath: m_LocalPosition.x
      value: 0.137
      objectReference: {fileID: 0}
    - target: {fileID: 2337074158996965286, guid: ada2587319194f542957a8c2ae277cb9,
        type: 3}
      propertyPath: m_LocalPosition.y
      value: -0.11078483
      objectReference: {fileID: 0}
    - target: {fileID: 2337074158996965286, guid: ada2587319194f542957a8c2ae277cb9,
        type: 3}
      propertyPath: m_LocalPosition.z
      value: 0.487
      objectReference: {fileID: 0}
    - target: {fileID: 2337074158996965286, guid: ada2587319194f542957a8c2ae277cb9,
        type: 3}
      propertyPath: m_LocalRotation.x
      value: -0.018488158
      objectReference: {fileID: 0}
    - target: {fileID: 2337074158996965286, guid: ada2587319194f542957a8c2ae277cb9,
        type: 3}
      propertyPath: m_LocalRotation.y
      value: -0.7370018
      objectReference: {fileID: 0}
    - target: {fileID: 2337074158996965286, guid: ada2587319194f542957a8c2ae277cb9,
        type: 3}
      propertyPath: m_LocalRotation.z
      value: 0.02017627
      objectReference: {fileID: 0}
    - target: {fileID: 2337074158996965286, guid: ada2587319194f542957a8c2ae277cb9,
        type: 3}
      propertyPath: m_LocalRotation.w
      value: 0.6753366
      objectReference: {fileID: 0}
    - target: {fileID: 2337074158996965286, guid: ada2587319194f542957a8c2ae277cb9,
        type: 3}
      propertyPath: m_RootOrder
      value: 2
      objectReference: {fileID: 0}
    - target: {fileID: 2337074158996965286, guid: ada2587319194f542957a8c2ae277cb9,
        type: 3}
      propertyPath: m_LocalEulerAnglesHint.x
      value: 0.273
      objectReference: {fileID: 0}
    - target: {fileID: 2337074158996965286, guid: ada2587319194f542957a8c2ae277cb9,
        type: 3}
      propertyPath: m_LocalEulerAnglesHint.y
      value: -94.993004
      objectReference: {fileID: 0}
    - target: {fileID: 2337074158996965286, guid: ada2587319194f542957a8c2ae277cb9,
        type: 3}
      propertyPath: m_LocalEulerAnglesHint.z
      value: 3.124
      objectReference: {fileID: 0}
    - target: {fileID: 2337074158996965286, guid: ada2587319194f542957a8c2ae277cb9,
        type: 3}
      propertyPath: m_LocalScale.x
      value: 2
      objectReference: {fileID: 0}
    - target: {fileID: 2337074158996965286, guid: ada2587319194f542957a8c2ae277cb9,
        type: 3}
      propertyPath: m_LocalScale.y
      value: 2
      objectReference: {fileID: 0}
    - target: {fileID: 2337074158996965286, guid: ada2587319194f542957a8c2ae277cb9,
        type: 3}
      propertyPath: m_LocalScale.z
      value: 2
      objectReference: {fileID: 0}
    - target: {fileID: 2337074158997199750, guid: ada2587319194f542957a8c2ae277cb9,
        type: 3}
      propertyPath: m_Name
      value: Carbine
      objectReference: {fileID: 0}
    - target: {fileID: 2337074158997199750, guid: ada2587319194f542957a8c2ae277cb9,
        type: 3}
      propertyPath: m_IsActive
      value: 1
      objectReference: {fileID: 0}
    - target: {fileID: 4170932719225652617, guid: ada2587319194f542957a8c2ae277cb9,
        type: 3}
      propertyPath: FPCamera
      value: 
      objectReference: {fileID: 2000000}
    - target: {fileID: 4170932719225652617, guid: ada2587319194f542957a8c2ae277cb9,
        type: 3}
      propertyPath: ammoSlot
      value: 
      objectReference: {fileID: 5557797725371813686}
    - target: {fileID: 4608451837989842683, guid: ada2587319194f542957a8c2ae277cb9,
        type: 3}
      propertyPath: fpsCamera
      value: 
      objectReference: {fileID: 2000000}
    - target: {fileID: 4608451837989842683, guid: ada2587319194f542957a8c2ae277cb9,
        type: 3}
      propertyPath: fpsController
      value: 
      objectReference: {fileID: 11400004}
    m_RemovedComponents: []
  m_SourcePrefab: {fileID: 100100000, guid: ada2587319194f542957a8c2ae277cb9, type: 3}
--- !u!4 &8389406227759258528 stripped
Transform:
  m_CorrespondingSourceObject: {fileID: 2337074158996965286, guid: ada2587319194f542957a8c2ae277cb9,
    type: 3}
  m_PrefabInstance: {fileID: 6053924299734522886}
  m_PrefabAsset: {fileID: 0}
--- !u!1001 &8232996697899343723
PrefabInstance:
  m_ObjectHideFlags: 0
  serializedVersion: 2
  m_Modification:
    m_TransformParent: {fileID: 8928529712137148515}
    m_Modifications:
    - target: {fileID: 2337074158996965286, guid: 51aa85b1d412278428d020a62ba7157c,
        type: 3}
      propertyPath: m_LocalPosition.x
      value: 0.137
      objectReference: {fileID: 0}
    - target: {fileID: 2337074158996965286, guid: 51aa85b1d412278428d020a62ba7157c,
        type: 3}
      propertyPath: m_LocalPosition.y
      value: -0.11078483
      objectReference: {fileID: 0}
    - target: {fileID: 2337074158996965286, guid: 51aa85b1d412278428d020a62ba7157c,
        type: 3}
      propertyPath: m_LocalPosition.z
      value: 0.487
      objectReference: {fileID: 0}
    - target: {fileID: 2337074158996965286, guid: 51aa85b1d412278428d020a62ba7157c,
        type: 3}
      propertyPath: m_LocalRotation.x
      value: -0.018488158
      objectReference: {fileID: 0}
    - target: {fileID: 2337074158996965286, guid: 51aa85b1d412278428d020a62ba7157c,
        type: 3}
      propertyPath: m_LocalRotation.y
      value: -0.7370018
      objectReference: {fileID: 0}
    - target: {fileID: 2337074158996965286, guid: 51aa85b1d412278428d020a62ba7157c,
        type: 3}
      propertyPath: m_LocalRotation.z
      value: 0.02017627
      objectReference: {fileID: 0}
    - target: {fileID: 2337074158996965286, guid: 51aa85b1d412278428d020a62ba7157c,
        type: 3}
      propertyPath: m_LocalRotation.w
      value: 0.6753366
      objectReference: {fileID: 0}
    - target: {fileID: 2337074158996965286, guid: 51aa85b1d412278428d020a62ba7157c,
        type: 3}
      propertyPath: m_RootOrder
      value: 0
      objectReference: {fileID: 0}
    - target: {fileID: 2337074158996965286, guid: 51aa85b1d412278428d020a62ba7157c,
        type: 3}
      propertyPath: m_LocalEulerAnglesHint.x
      value: 0.273
      objectReference: {fileID: 0}
    - target: {fileID: 2337074158996965286, guid: 51aa85b1d412278428d020a62ba7157c,
        type: 3}
      propertyPath: m_LocalEulerAnglesHint.y
      value: -94.993004
      objectReference: {fileID: 0}
    - target: {fileID: 2337074158996965286, guid: 51aa85b1d412278428d020a62ba7157c,
        type: 3}
      propertyPath: m_LocalEulerAnglesHint.z
      value: 3.124
      objectReference: {fileID: 0}
    - target: {fileID: 2337074158997199750, guid: 51aa85b1d412278428d020a62ba7157c,
        type: 3}
      propertyPath: m_Name
      value: Pistol
      objectReference: {fileID: 0}
    - target: {fileID: 4170932719225652617, guid: 51aa85b1d412278428d020a62ba7157c,
        type: 3}
      propertyPath: FPCamera
      value: 
      objectReference: {fileID: 2000000}
    - target: {fileID: 4170932719225652617, guid: 51aa85b1d412278428d020a62ba7157c,
        type: 3}
      propertyPath: ammoSlot
      value: 
      objectReference: {fileID: 5557797725371813686}
    m_RemovedComponents: []
  m_SourcePrefab: {fileID: 100100000, guid: 51aa85b1d412278428d020a62ba7157c, type: 3}
--- !u!4 &5922108650654226637 stripped
Transform:
  m_CorrespondingSourceObject: {fileID: 2337074158996965286, guid: 51aa85b1d412278428d020a62ba7157c,
    type: 3}
  m_PrefabInstance: {fileID: 8232996697899343723}
  m_PrefabAsset: {fileID: 0}
